ParcialACTTWO/ParteParcial6/simulation/qsim/ParqueaderoUnitario.msim.vcd
$comment
	File created using the following command:
		vcd file ParqueaderoUnitario.msim.vcd -direction
$end
$date
	Mon Apr 24 23:04:28 2023
$end
$version
	ModelSim Version 10.1d
$end
$timescale
	1ps
$end
$scope module ParqueaderoUnitario_vlg_vec_tst $end
$var reg 1 ! Entrada $end
$var reg 1 " senalReloj $end
$var wire 1 # Felicitacion $end
$var wire 1 $ MinUni [3] $end
$var wire 1 % MinUni [2] $end
$var wire 1 & MinUni [1] $end
$var wire 1 ' MinUni [0] $end
$var wire 1 ( SegDec [2] $end
$var wire 1 ) SegDec [1] $end
$var wire 1 * SegDec [0] $end
$var wire 1 + SegUni [3] $end
$var wire 1 , SegUni [2] $end
$var wire 1 - SegUni [1] $end
$var wire 1 . SegUni [0] $end
$var wire 1 / sampler $end
$scope module i1 $end
$var wire 1 0 gnd $end
$var wire 1 1 vcc $end
$var wire 1 2 unknown $end
$var tri1 1 3 devclrn $end
$var tri1 1 4 devpor $end
$var tri1 1 5 devoe $end
$var wire 1 6 SegUni[0]~output_o $end
$var wire 1 7 SegUni[1]~output_o $end
$var wire 1 8 SegUni[2]~output_o $end
$var wire 1 9 SegUni[3]~output_o $end
$var wire 1 : SegDec[0]~output_o $end
$var wire 1 ; SegDec[1]~output_o $end
$var wire 1 < SegDec[2]~output_o $end
$var wire 1 = MinUni[0]~output_o $end
$var wire 1 > MinUni[1]~output_o $end
$var wire 1 ? MinUni[2]~output_o $end
$var wire 1 @ MinUni[3]~output_o $end
$var wire 1 A Felicitacion~output_o $end
$var wire 1 B senalReloj~input_o $end
$var wire 1 C senalReloj~inputclkctrl_outclk $end
$var wire 1 D Paso1|SegUni[0]~2_combout $end
$var wire 1 E Entrada~input_o $end
$var wire 1 F Entrada~inputclkctrl_outclk $end
$var wire 1 G Paso1|Add1~3 $end
$var wire 1 H Paso1|Add1~4_combout $end
$var wire 1 I Paso1|contar_tiempo:count2[24]~q $end
$var wire 1 J Paso1|Equal0~6_combout $end
$var wire 1 K Paso1|Add0~0_combout $end
$var wire 1 L Paso1|Equal0~2_combout $end
$var wire 1 M Paso1|Equal0~3_combout $end
$var wire 1 N Paso1|Equal0~1_combout $end
$var wire 1 O Paso1|Equal0~4_combout $end
$var wire 1 P Paso1|Equal0~5_combout $end
$var wire 1 Q Paso1|Equal0~0_combout $end
$var wire 1 R Paso1|Equal0~9_combout $end
$var wire 1 S Paso1|count2~0_combout $end
$var wire 1 T Paso1|contar_tiempo:count2[0]~q $end
$var wire 1 U Paso1|Add0~1 $end
$var wire 1 V Paso1|Add0~2_combout $end
$var wire 1 W Paso1|contar_tiempo:count2[1]~q $end
$var wire 1 X Paso1|Add0~3 $end
$var wire 1 Y Paso1|Add0~4_combout $end
$var wire 1 Z Paso1|contar_tiempo:count2[2]~q $end
$var wire 1 [ Paso1|Add0~5 $end
$var wire 1 \ Paso1|Add0~6_combout $end
$var wire 1 ] Paso1|contar_tiempo:count2[3]~q $end
$var wire 1 ^ Paso1|Add0~7 $end
$var wire 1 _ Paso1|Add0~8_combout $end
$var wire 1 ` Paso1|contar_tiempo:count2[4]~q $end
$var wire 1 a Paso1|Add0~9 $end
$var wire 1 b Paso1|Add0~10_combout $end
$var wire 1 c Paso1|contar_tiempo:count2[5]~q $end
$var wire 1 d Paso1|Add0~11 $end
$var wire 1 e Paso1|Add0~12_combout $end
$var wire 1 f Paso1|contar_tiempo:count2[6]~q $end
$var wire 1 g Paso1|Add0~13 $end
$var wire 1 h Paso1|Add0~14_combout $end
$var wire 1 i Paso1|contar_tiempo:count2[7]~q $end
$var wire 1 j Paso1|Add0~15 $end
$var wire 1 k Paso1|Add0~16_combout $end
$var wire 1 l Paso1|contar_tiempo:count2[8]~q $end
$var wire 1 m Paso1|Add0~17 $end
$var wire 1 n Paso1|Add0~18_combout $end
$var wire 1 o Paso1|contar_tiempo:count2[9]~q $end
$var wire 1 p Paso1|Add0~19 $end
$var wire 1 q Paso1|Add0~20_combout $end
$var wire 1 r Paso1|contar_tiempo:count2[10]~q $end
$var wire 1 s Paso1|Add0~21 $end
$var wire 1 t Paso1|Add0~22_combout $end
$var wire 1 u Paso1|contar_tiempo:count2[11]~q $end
$var wire 1 v Paso1|Add0~23 $end
$var wire 1 w Paso1|Add0~24_combout $end
$var wire 1 x Paso1|contar_tiempo:count2[12]~q $end
$var wire 1 y Paso1|Add0~25 $end
$var wire 1 z Paso1|Add0~26_combout $end
$var wire 1 { Paso1|contar_tiempo:count2[13]~q $end
$var wire 1 | Paso1|Add0~27 $end
$var wire 1 } Paso1|Add0~28_combout $end
$var wire 1 ~ Paso1|contar_tiempo:count2[14]~q $end
$var wire 1 !! Paso1|Add0~29 $end
$var wire 1 "! Paso1|Add0~30_combout $end
$var wire 1 #! Paso1|contar_tiempo:count2[15]~q $end
$var wire 1 $! Paso1|Add0~31 $end
$var wire 1 %! Paso1|Add0~32_combout $end
$var wire 1 &! Paso1|contar_tiempo:count2[16]~q $end
$var wire 1 '! Paso1|Add0~33 $end
$var wire 1 (! Paso1|Add0~34_combout $end
$var wire 1 )! Paso1|contar_tiempo:count2[17]~q $end
$var wire 1 *! Paso1|Add0~35 $end
$var wire 1 +! Paso1|Add0~36_combout $end
$var wire 1 ,! Paso1|contar_tiempo:count2[18]~q $end
$var wire 1 -! Paso1|Add0~37 $end
$var wire 1 .! Paso1|Add0~38_combout $end
$var wire 1 /! Paso1|contar_tiempo:count2[19]~q $end
$var wire 1 0! Paso1|Add0~39 $end
$var wire 1 1! Paso1|Add0~40_combout $end
$var wire 1 2! Paso1|contar_tiempo:count2[20]~q $end
$var wire 1 3! Paso1|Add0~41 $end
$var wire 1 4! Paso1|Add0~42_combout $end
$var wire 1 5! Paso1|contar_tiempo:count2[21]~q $end
$var wire 1 6! Paso1|Add0~43 $end
$var wire 1 7! Paso1|Add0~44_combout $end
$var wire 1 8! Paso1|contar_tiempo:count2[22]~q $end
$var wire 1 9! Paso1|Add0~45 $end
$var wire 1 :! Paso1|Add0~46_combout $end
$var wire 1 ;! Paso1|contar_tiempo:count2[23]~q $end
$var wire 1 <! Paso1|Add0~47 $end
$var wire 1 =! Paso1|Add0~48_combout $end
$var wire 1 >! Paso1|contador[5]~2_combout $end
$var wire 1 ?! Paso1|contador[5]~3_combout $end
$var wire 1 @! Paso1|Add1~5 $end
$var wire 1 A! Paso1|Add1~6_combout $end
$var wire 1 B! Paso1|Add1~7 $end
$var wire 1 C! Paso1|Add1~8_combout $end
$var wire 1 D! Paso1|Add1~9 $end
$var wire 1 E! Paso1|Add1~10_combout $end
$var wire 1 F! Paso1|contador[5]~5_combout $end
$var wire 1 G! Paso1|LessThan1~0_combout $end
$var wire 1 H! Paso1|Equal0~7_combout $end
$var wire 1 I! Paso1|Equal0~8_combout $end
$var wire 1 J! Paso1|contador[0]~4_combout $end
$var wire 1 K! Paso1|Add1~1_cout $end
$var wire 1 L! Paso1|Add1~2_combout $end
$var wire 1 M! Paso1|contador[1]~6_combout $end
$var wire 1 N! Paso1|LessThan1~1_combout $end
$var wire 1 O! Paso1|RTCsegUni[3]~0_combout $end
$var wire 1 P! Paso1|RTCsegUni[3]~0clkctrl_outclk $end
$var wire 1 Q! Paso1|alarma_activa~0_combout $end
$var wire 1 R! Paso1|alarma_activa~q $end
$var wire 1 S! Paso1|Felicitacion~combout $end
$var wire 1 T! Paso2|SegUni[0]~3_combout $end
$var wire 1 U! ComienzoDelC~0_combout $end
$var wire 1 V! Paso2|RTCsegUni[0]~0_combout $end
$var wire 1 W! RealsegUni~0_combout $end
$var wire 1 X! Paso2|SegUni[2]~1_combout $end
$var wire 1 Y! Paso2|SegUni~2_combout $end
$var wire 1 Z! Paso2|SegUni~0_combout $end
$var wire 1 [! Paso1|SegUni~1_combout $end
$var wire 1 \! Paso1|Add2~0_combout $end
$var wire 1 ]! Paso1|SegUni~0_combout $end
$var wire 1 ^! RealsegUni~1_combout $end
$var wire 1 _! RealsegUni~2_combout $end
$var wire 1 `! RealsegUni~3_combout $end
$var wire 1 a! Paso2|SegDec[0]~2_combout $end
$var wire 1 b! Paso2|Equal1~0_combout $end
$var wire 1 c! Paso1|SegDec[0]~2_combout $end
$var wire 1 d! Paso1|SegDec[0]~0_combout $end
$var wire 1 e! Paso1|SegDec[0]~1_combout $end
$var wire 1 f! RealSegDec~0_combout $end
$var wire 1 g! Paso2|SegDec~1_combout $end
$var wire 1 h! Paso2|SegDec~0_combout $end
$var wire 1 i! Paso1|Add3~0_combout $end
$var wire 1 j! RealSegDec~1_combout $end
$var wire 1 k! Paso1|Add3~1_combout $end
$var wire 1 l! RealSegDec~2_combout $end
$var wire 1 m! Paso2|MinUni[0]~4_combout $end
$var wire 1 n! Paso2|MinUni[3]~0_combout $end
$var wire 1 o! Ultimisima~0_combout $end
$var wire 1 p! Paso2|MinUni[2]~2_combout $end
$var wire 1 q! Paso2|MinUni~3_combout $end
$var wire 1 r! Paso2|MinUni~1_combout $end
$var wire 1 s! Ultimisima~1_combout $end
$var wire 1 t! Ultimisima~2_combout $end
$var wire 1 u! Ultimisima~3_combout $end
$var wire 1 v! Felicitacion$latch~combout $end
$var wire 1 w! Paso2|RTCMin [3] $end
$var wire 1 x! Paso2|RTCMin [2] $end
$var wire 1 y! Paso2|RTCMin [1] $end
$var wire 1 z! Paso2|RTCMin [0] $end
$var wire 1 {! Paso2|SegUni [3] $end
$var wire 1 |! Paso2|SegUni [2] $end
$var wire 1 }! Paso2|SegUni [1] $end
$var wire 1 ~! Paso2|SegUni [0] $end
$var wire 1 !" Paso1|SegDec [2] $end
$var wire 1 "" Paso1|SegDec [1] $end
$var wire 1 #" Paso1|SegDec [0] $end
$var wire 1 $" Paso1|RTCsegUni [3] $end
$var wire 1 %" Paso1|RTCsegUni [2] $end
$var wire 1 &" Paso1|RTCsegUni [1] $end
$var wire 1 '" Paso1|RTCsegUni [0] $end
$var wire 1 (" Paso2|RTCsegUni [3] $end
$var wire 1 )" Paso2|RTCsegUni [2] $end
$var wire 1 *" Paso2|RTCsegUni [1] $end
$var wire 1 +" Paso2|RTCsegUni [0] $end
$var wire 1 ," Paso1|SegUni [3] $end
$var wire 1 -" Paso1|SegUni [2] $end
$var wire 1 ." Paso1|SegUni [1] $end
$var wire 1 /" Paso1|SegUni [0] $end
$var wire 1 0" Paso2|SegDec [2] $end
$var wire 1 1" Paso2|SegDec [1] $end
$var wire 1 2" Paso2|SegDec [0] $end
$var wire 1 3" Paso1|contador [5] $end
$var wire 1 4" Paso1|contador [4] $end
$var wire 1 5" Paso1|contador [3] $end
$var wire 1 6" Paso1|contador [2] $end
$var wire 1 7" Paso1|contador [1] $end
$var wire 1 8" Paso1|contador [0] $end
$var wire 1 9" Paso2|RTCsegDec [2] $end
$var wire 1 :" Paso2|RTCsegDec [1] $end
$var wire 1 ;" Paso2|RTCsegDec [0] $end
$var wire 1 <" Paso1|RTCsegDec [2] $end
$var wire 1 =" Paso1|RTCsegDec [1] $end
$var wire 1 >" Paso1|RTCsegDec [0] $end
$var wire 1 ?" Paso2|MinUni [3] $end
$var wire 1 @" Paso2|MinUni [2] $end
$var wire 1 A" Paso2|MinUni [1] $end
$var wire 1 B" Paso2|MinUni [0] $end
$upscope $end
$upscope $end
$enddefinitions $end
#0
$dumpvars
0!
0"
x#
0'
0&
0%
0$
x*
x)
x(
x.
x-
x,
x+
x/
00
11
x2
13
14
15
x6
x7
x8
x9
x:
x;
x<
0=
0>
0?
0@
xA
0B
0C
1D
0E
0F
0G
0H
0I
1J
1K
1L
1M
1N
1O
1P
1Q
1R
0S
0T
0U
0V
0W
1X
0Y
0Z
0[
0\
0]
1^
0_
0`
0a
0b
0c
1d
0e
0f
0g
0h
0i
1j
0k
0l
0m
0n
0o
1p
0q
0r
0s
0t
0u
1v
0w
0x
0y
0z
0{
1|
0}
0~
0!!
0"!
0#!
1$!
0%!
0&!
0'!
0(!
0)!
1*!
0+!
0,!
0-!
0.!
0/!
10!
01!
02!
03!
04!
05!
16!
07!
08!
09!
0:!
0;!
1<!
0=!
1>!
1?!
1@!
0A!
0B!
0C!
1D!
1E!
0F!
1G!
1H!
1I!
1J!
1K!
1L!
0M!
1N!
0O!
0P!
0Q!
0R!
xS!
1T!
1U!
1V!
xW!
0X!
0Y!
1Z!
0[!
0\!
1]!
x^!
x_!
x`!
1a!
0b!
1c!
0d!
0e!
xf!
0g!
0h!
0i!
xj!
0k!
xl!
1m!
0n!
0o!
0p!
0q!
0r!
0s!
0t!
0u!
xv!
0z!
0y!
0x!
0w!
0~!
0}!
0|!
0{!
0#"
0""
0!"
x'"
x&"
x%"
x$"
0+"
0*"
0)"
0("
0/"
0."
0-"
0,"
02"
01"
00"
08"
07"
06"
05"
04"
03"
0;"
0:"
09"
x>"
x="
x<"
0B"
0A"
0@"
0?"
$end
#2500
1"
1B
1C
0/
#5000
0"
0B
0C
1/
#7500
1"
1B
1C
0/
#10000
0"
0B
0C
1/
#12500
1"
1B
1C
0/
#15000
0"
0B
0C
1/
#17500
1"
1B
1C
0/
#20000
0"
0B
0C
1/
#22500
1"
1B
1C
0/
#25000
0"
0B
0C
1/
#27500
1"
1B
1C
0/
#30000
0"
0B
0C
1/
#32500
1"
1B
1C
0/
#35000
0"
0B
0C
1/
#37500
1"
1B
1C
0/
#40000
0"
0B
0C
1/
#42500
1"
1B
1C
0/
#45000
0"
0B
0C
1/
#47500
1"
1B
1C
0/
#50000
1!
0"
1E
0B
1F
0C
1/
xU!
1O!
1S!
1P!
1U!
0<"
1="
1>"
0$"
1%"
1&"
0'"
1v!
1A
1#
0l!
1j!
1f!
0`!
1_!
1^!
0W!
0<
1;
1:
09
18
17
06
0(
1)
1*
0+
1,
1-
0.
#52500
1"
1B
1C
0/
18"
1."
1/"
0K!
0J!
0&"
1'"
0D
0L!
0^!
1W!
1M!
07
16
0-
1.
#55000
0"
0B
0C
1/
#57500
1"
1B
1C
0/
17"
08"
0/"
1J!
1G
1L!
1K!
0]!
1[!
0'"
1D
0@!
1H
0M!
0G
0L!
0W!
1B!
1A!
1@!
0H
1M!
06
0.
0D!
1C!
0B!
0A!
0E!
1D!
0C!
1F!
1E!
0F!
#60000
0"
0B
0C
1/
#62500
1"
1B
1C
0/
18"
0."
1-"
1/"
0K!
0J!
1&"
0%"
1'"
0D
1G
1L!
1^!
0_!
1W!
0@!
1H
0M!
17
08
16
1-
0,
1.
1B!
1A!
0D!
1C!
0E!
1F!
#65000
0"
0B
0C
1/
#67500
1"
1B
1C
0/
07"
08"
13"
14"
15"
16"
0/"
1J!
0G
0L!
1K!
1E!
1D!
0C!
0B!
0A!
1@!
0H
1]!
0'"
1D
1H
1M!
1L!
0F!
0E!
1C!
1A!
0W!
0M!
1F!
06
0.
#70000
0"
0B
0C
1/
#72500
1"
1B
1C
0/
18"
1."
1/"
0K!
0J!
0&"
1'"
0D
0L!
0^!
1W!
1M!
07
16
0-
1.
#75000
0"
0B
0C
1/
#77500
1"
1B
1C
0/
17"
08"
0/"
1J!
1G
1L!
1K!
1d!
1\!
0'"
1D
0H
0M!
0G
0L!
1e!
0W!
1H
1M!
06
0.
#80000
0"
0B
0C
1/
#82500
1"
1B
1C
0/
18"
1#"
1,"
1/"
0K!
0J!
1i!
0>"
0c!
0d!
1$"
1'"
0D
1G
1L!
0e!
0f!
1`!
1W!
0H
0M!
0:
19
16
0*
1+
1.
#85000
0"
0B
0C
1/
#87500
1"
1B
1C
0/
07"
08"
06"
0/"
1J!
0G
0L!
1K!
0@!
1H
0]!
0\!
0[!
0'"
1D
1@!
0H
1M!
1L!
0A!
0W!
1A!
0M!
06
0.
#90000
0"
0B
0C
1/
#92500
1"
1B
1C
0/
18"
0."
0,"
0-"
1/"
0K!
0J!
1&"
0$"
1%"
1'"
0D
0L!
1^!
0`!
1_!
1W!
1M!
17
09
18
16
1-
0+
1,
1.
#95000
0"
0B
0C
1/
#97500
1"
1B
1C
0/
17"
08"
0/"
1J!
1G
1L!
1K!
1]!
0'"
1D
0@!
1H
0M!
0G
0L!
0W!
0A!
1@!
0H
1M!
06
0.
1A!
#100000
0"
0B
0C
1/
#102500
1"
1B
1C
0/
18"
1."
1/"
0K!
0J!
0&"
1'"
0D
1G
1L!
0^!
1W!
0@!
1H
0M!
07
16
0-
1.
0A!
#105000
0"
0B
0C
1/
#107500
1"
1B
1C
0/
07"
08"
05"
16"
0/"
1J!
0G
0L!
1K!
1B!
1A!
1@!
0H
0]!
1[!
0'"
1D
1H
1M!
1L!
0C!
0B!
0A!
0W!
0M!
1C!
06
0.
#110000
0"
0B
0C
1/
#112500
1"
1B
1C
0/
18"
0."
1-"
1/"
0K!
0J!
1&"
0%"
1'"
0D
0L!
1^!
0_!
1W!
1M!
17
08
16
1-
0,
1.
#115000
0"
0B
0C
1/
#117500
1"
1B
1C
0/
17"
08"
0/"
1J!
1G
1L!
1K!
1]!
0'"
1D
0H
0M!
0G
0L!
0W!
1H
1M!
06
0.
#120000
0"
0B
0C
1/
#122500
1"
1B
1C
0/
18"
1."
1/"
0K!
0J!
0&"
1'"
0D
1G
1L!
0^!
1W!
0H
0M!
07
16
0-
1.
#125000
0"
0B
0C
1/
#127500
1"
1B
1C
0/
07"
08"
06"
0/"
1J!
0G
0L!
1K!
0@!
1H
1d!
1\!
0'"
1D
1@!
0H
1M!
1L!
1B!
1A!
1e!
0W!
0B!
0A!
0M!
0C!
06
0.
1C!
#130000
0"
0B
0C
1/
#132500
1"
1B
1C
0/
18"
1""
0#"
1,"
1/"
0K!
0J!
0="
1>"
1c!
0d!
1$"
1'"
0D
0L!
0e!
0j!
1f!
1`!
1W!
1M!
0;
1:
19
16
0)
1*
1+
1.
#135000
0"
0B
0C
1/
#137500
1"
1B
1C
0/
17"
08"
0/"
1J!
1G
1L!
1K!
0]!
0\!
0[!
0'"
1D
0@!
1H
0M!
0G
0L!
0W!
1B!
1A!
1@!
0H
1M!
06
0.
0C!
0B!
0A!
1C!
#140000
0"
0B
0C
1/
#142500
1"
1B
1C
0/
18"
0."
0,"
0-"
1/"
0K!
0J!
1&"
0$"
1%"
1'"
0D
1G
1L!
1^!
0`!
1_!
1W!
0@!
1H
0M!
17
09
18
16
1-
0+
1,
1.
1B!
1A!
0C!
#145000
0"
0B
0C
1/
#147500
1"
1B
1C
0/
07"
08"
04"
15"
16"
0/"
1J!
0G
0L!
1K!
0D!
1C!
0B!
0A!
1@!
0H
1]!
0'"
1D
1H
1M!
1L!
1E!
1D!
0C!
1A!
0W!
0M!
0F!
0E!
06
0.
1F!
#150000
0"
0B
0C
1/
#152500
1"
1B
1C
0/
18"
1."
1/"
0K!
0J!
0&"
1'"
0D
0L!
0^!
1W!
1M!
07
16
0-
1.
#155000
0"
0B
0C
1/
#157500
1"
1B
1C
0/
17"
08"
0/"
1J!
1G
1L!
1K!
0]!
1[!
0'"
1D
0H
0M!
0G
0L!
0W!
1H
1M!
06
0.
#160000
0"
0B
0C
1/
#162500
1"
1B
1C
0/
18"
0."
1-"
1/"
0K!
0J!
1&"
0%"
1'"
0D
1G
1L!
1^!
0_!
1W!
0H
0M!
17
08
16
1-
0,
1.
#165000
0"
0B
0C
1/
#167500
1"
1B
1C
0/
07"
08"
06"
0/"
1J!
0G
0L!
1K!
0@!
1H
1]!
0'"
1D
1@!
0H
1M!
1L!
0A!
0W!
1A!
0M!
06
0.
#170000
0"
0B
0C
1/
#172500
1"
1B
1C
0/
18"
1."
1/"
0K!
0J!
0&"
1'"
0D
0L!
0^!
1W!
1M!
07
16
0-
1.
#175000
0"
0B
0C
1/
#177500
1"
1B
1C
0/
17"
08"
0/"
1J!
1G
1L!
1K!
1d!
1\!
0'"
1D
0@!
1H
0M!
0G
0L!
1e!
0W!
0A!
1@!
0H
1M!
06
0.
1A!
#180000
0"
0B
0C
1/
#182500
1"
1B
1C
0/
18"
1#"
1,"
1/"
0K!
0J!
1k!
0i!
0>"
0c!
0d!
1$"
1'"
0D
1G
1L!
0e!
0f!
1`!
1W!
0@!
1H
0M!
0:
19
16
0*
1+
1.
0A!
#185000
0"
0B
0C
1/
#187500
1"
1B
1C
0/
07"
08"
05"
16"
0/"
1J!
0G
0L!
1K!
1B!
1A!
1@!
0H
0]!
0\!
0[!
0'"
1D
1H
1M!
1L!
0D!
1C!
0B!
0A!
0W!
0M!
1E!
1D!
0C!
06
0.
0F!
0E!
1F!
#190000
0"
0B
0C
1/
#192500
1"
1B
1C
0/
18"
0."
0,"
0-"
1/"
0K!
0J!
1&"
0$"
1%"
1'"
0D
0L!
1^!
0`!
1_!
1W!
1M!
17
09
18
16
1-
0+
1,
1.
#195000
0"
0B
0C
1/
#197500
1"
1B
1C
0/
17"
08"
0/"
1J!
1G
1L!
1K!
1]!
0'"
1D
0H
0M!
0G
0L!
0W!
1H
1M!
06
0.
#200000
0"
0B
0C
1/
#202500
1"
1B
1C
0/
18"
1."
1/"
0K!
0J!
0&"
1'"
0D
1G
1L!
0^!
1W!
0H
0M!
07
16
0-
1.
#205000
0"
0B
0C
1/
#207500
1"
1B
1C
0/
07"
08"
06"
0/"
1J!
0G
0L!
1K!
0G!
0@!
1H
0]!
1[!
0'"
1D
1@!
0H
1M!
1L!
1B!
1A!
0W!
0B!
0A!
0M!
0D!
1C!
06
0.
1D!
0C!
1E!
0E!
0F!
1F!
#210000
0"
0B
0C
1/
#212500
1"
1B
1C
0/
18"
0."
1-"
1/"
0K!
0J!
1&"
0%"
1'"
0D
0L!
1^!
0_!
1W!
1M!
17
08
16
1-
0,
1.
#215000
0"
0B
0C
1/
#217500
1"
1B
1C
0/
17"
08"
0/"
1J!
1G
1L!
1K!
1]!
0'"
1D
0@!
1H
0M!
0G
0L!
0W!
1B!
1A!
1@!
0H
1M!
06
0.
0D!
1C!
0B!
0A!
1E!
1D!
0C!
0F!
0E!
1F!
#220000
0"
0B
0C
1/
#222500
1"
1B
1C
0/
18"
1."
1/"
0O!
0N!
0K!
0&"
1'"
0D
0P!
1Q!
0>!
1G
1L!
0^!
1W!
0?!
0@!
1H
0M!
07
16
0-
1.
1B!
1A!
0D!
1C!
1E!
0F!
#225000
0"
0B
0C
1/
#227500
1"
1B
1C
0/
1R!
0S!
0U!
0v!
0W!
0A
06
0#
0.
#230000
0"
0B
0C
1/
#232500
1"
1B
1C
0/
1}!
1+"
1~!
0V!
0T!
1W!
16
1.
#235000
0"
0B
0C
1/
#237500
1"
1B
1C
0/
1*"
0+"
0~!
0Z!
1X!
1V!
1T!
1^!
0W!
17
06
1-
0.
#240000
0"
0B
0C
1/
#242500
1"
1B
1C
0/
0}!
1|!
1+"
1~!
0V!
0T!
1W!
16
1.
#245000
0"
0B
0C
1/
#247500
1"
1B
1C
0/
1)"
0*"
0+"
0~!
1Z!
1V!
1T!
1_!
0^!
0W!
18
07
06
1,
0-
0.
#250000
0"
0B
0C
1/
#252500
1"
1B
1C
0/
1}!
1+"
1~!
0V!
0T!
1W!
16
1.
#255000
0"
0B
0C
1/
#257500
1"
1B
1C
0/
1*"
0+"
0~!
0Z!
1Y!
0X!
1V!
1T!
1^!
0W!
17
06
1-
0.
#260000
0"
0B
0C
1/
#262500
1"
1B
1C
0/
0}!
1{!
0|!
1+"
1~!
0V!
0T!
1W!
16
1.
#265000
0"
0B
0C
1/
#267500
1"
1B
1C
0/
1("
0)"
0*"
0+"
0~!
1b!
0Y!
1V!
1T!
1`!
0_!
0^!
0W!
19
08
07
06
1+
0,
0-
0.
#270000
0"
0B
0C
1/
#272500
1"
1B
1C
0/
12"
0{!
1+"
1~!
1h!
0a!
0b!
0V!
0T!
1W!
16
1.
#275000
0"
0B
0C
1/
#277500
1"
1B
1C
0/
1;"
0("
0+"
0~!
1Z!
1V!
1T!
1f!
0`!
0W!
1:
09
06
1*
0+
0.
#280000
0"
0B
0C
1/
#282500
1"
1B
1C
0/
1}!
1+"
1~!
0V!
0T!
1W!
16
1.
#285000
0"
0B
0C
1/
#287500
1"
1B
1C
0/
1*"
0+"
0~!
0Z!
1X!
1V!
1T!
1^!
0W!
17
06
1-
0.
#290000
0!
0"
0E
0B
0F
0C
1/
1U!
0}!
02"
0""
0#"
0."
0-"
0R!
0/"
07"
08"
03"
1Z!
0X!
0h!
1a!
0k!
1c!
0[!
1D
1N!
0G
0L!
1K!
1G!
0E!
0Q!
1>!
1@!
0H
1M!
1L!
1F!
1?!
0B!
0A!
0M!
1D!
0C!
1E!
0F!
#292500
1"
1B
1C
0/
#295000
0"
0B
0C
1/
#297500
1"
1B
1C
0/
#300000
0"
0B
0C
1/
#302500
1"
1B
1C
0/
#305000
0"
0B
0C
1/
#307500
1"
1B
1C
0/
#310000
0"
0B
0C
1/
#312500
1"
1B
1C
0/
#315000
0"
0B
0C
1/
#317500
1"
1B
1C
0/
#320000
0"
0B
0C
1/
#322500
1"
1B
1C
0/
#325000
0"
0B
0C
1/
#327500
1"
1B
1C
0/
#330000
0"
0B
0C
1/
#332500
1"
1B
1C
0/
#335000
0"
0B
0C
1/
#337500
1"
1B
1C
0/
#340000
0"
0B
0C
1/
#342500
1"
1B
1C
0/
#345000
0"
0B
0C
1/
#347500
1"
1B
1C
0/
#350000
0"
0B
0C
1/
#352500
1"
1B
1C
0/
#355000
0"
0B
0C
1/
#357500
1"
1B
1C
0/
#360000
0"
0B
0C
1/
#362500
1"
1B
1C
0/
#365000
0"
0B
0C
1/
#367500
1"
1B
1C
0/
#370000
0"
0B
0C
1/
#372500
1"
1B
1C
0/
#375000
0"
0B
0C
1/
#377500
1"
1B
1C
0/
#380000
0"
0B
0C
1/
#382500
1"
1B
1C
0/
#385000
0"
0B
0C
1/
#387500
1"
1B
1C
0/
#390000
0"
0B
0C
1/
#392500
1"
1B
1C
0/
#395000
0"
0B
0C
1/
#397500
1"
1B
1C
0/
#400000
0"
0B
0C
1/
#402500
1"
1B
1C
0/
#405000
0"
0B
0C
1/
#407500
1"
1B
1C
0/
#410000
0"
0B
0C
1/
#412500
1"
1B
1C
0/
#415000
0"
0B
0C
1/
#417500
1"
1B
1C
0/
#420000
0"
0B
0C
1/
#422500
1"
1B
1C
0/
#425000
0"
0B
0C
1/
#427500
1"
1B
1C
0/
#430000
1!
0"
1E
0B
1F
0C
1/
0U!
1O!
1S!
1P!
1U!
1="
1>"
1%"
1&"
0'"
1v!
0f!
0^!
1W!
1A
0:
07
16
1#
0*
0-
1.
1j!
1f!
1_!
1^!
0W!
1;
1:
18
17
06
1)
1*
1,
1-
0.
#432500
1"
1B
1C
0/
18"
1."
1/"
0K!
0J!
0&"
1'"
0D
0L!
0^!
1W!
1M!
07
16
0-
1.
#435000
0"
0B
0C
1/
#437500
1"
1B
1C
0/
17"
08"
0/"
1J!
1G
1L!
1K!
0]!
1[!
0'"
1D
0@!
1H
0M!
0G
0L!
0W!
1B!
1A!
1@!
0H
1M!
06
0.
0D!
1C!
0B!
0A!
0E!
1D!
0C!
1F!
1E!
0F!
#440000
0"
0B
0C
1/
#442500
1"
1B
1C
0/
18"
0."
1-"
1/"
0K!
0J!
1&"
0%"
1'"
0D
1G
1L!
1^!
0_!
1W!
0@!
1H
0M!
17
08
16
1-
0,
1.
1B!
1A!
0D!
1C!
0E!
1F!
#445000
0"
0B
0C
1/
#447500
1"
1B
1C
0/
07"
08"
13"
14"
15"
16"
0/"
1J!
0G
0L!
1K!
1E!
1D!
0C!
0B!
0A!
1@!
0H
1]!
0'"
1D
1H
1M!
1L!
0F!
0E!
1C!
1A!
0W!
0M!
1F!
06
0.
#450000
0"
0B
0C
1/
#452500
1"
1B
1C
0/
18"
1."
1/"
0K!
0J!
0&"
1'"
0D
0L!
0^!
1W!
1M!
07
16
0-
1.
#455000
0"
0B
0C
1/
#457500
1"
1B
1C
0/
17"
08"
0/"
1J!
1G
1L!
1K!
1d!
1\!
0'"
1D
0H
0M!
0G
0L!
1e!
0W!
1H
1M!
06
0.
#460000
0"
0B
0C
1/
#462500
1"
1B
1C
0/
18"
1#"
1,"
1/"
0K!
0J!
1i!
0>"
0c!
0d!
1$"
1'"
0D
1G
1L!
0e!
0f!
1`!
1W!
0H
0M!
0:
19
16
0*
1+
1.
#465000
0"
0B
0C
1/
#467500
1"
1B
1C
0/
07"
08"
06"
0/"
1J!
0G
0L!
1K!
0@!
1H
0]!
0\!
0[!
0'"
1D
1@!
0H
1M!
1L!
0A!
0W!
1A!
0M!
06
0.
#470000
0"
0B
0C
1/
#472500
1"
1B
1C
0/
18"
0."
0,"
0-"
1/"
0K!
0J!
1&"
0$"
1%"
1'"
0D
0L!
1^!
0`!
1_!
1W!
1M!
17
09
18
16
1-
0+
1,
1.
#475000
0"
0B
0C
1/
#477500
1"
1B
1C
0/
17"
08"
0/"
1J!
1G
1L!
1K!
1]!
0'"
1D
0@!
1H
0M!
0G
0L!
0W!
0A!
1@!
0H
1M!
06
0.
1A!
#480000
0"
0B
0C
1/
#482500
1"
1B
1C
0/
18"
1."
1/"
0K!
0J!
0&"
1'"
0D
1G
1L!
0^!
1W!
0@!
1H
0M!
07
16
0-
1.
0A!
#485000
0"
0B
0C
1/
#487500
1"
1B
1C
0/
07"
08"
05"
16"
0/"
1J!
0G
0L!
1K!
1B!
1A!
1@!
0H
0]!
1[!
0'"
1D
1H
1M!
1L!
0C!
0B!
0A!
0W!
0M!
1C!
06
0.
#490000
0"
0B
0C
1/
#492500
1"
1B
1C
0/
18"
0."
1-"
1/"
0K!
0J!
1&"
0%"
1'"
0D
0L!
1^!
0_!
1W!
1M!
17
08
16
1-
0,
1.
#495000
0"
0B
0C
1/
#497500
1"
1B
1C
0/
17"
08"
0/"
1J!
1G
1L!
1K!
1]!
0'"
1D
0H
0M!
0G
0L!
0W!
1H
1M!
06
0.
